6 Shaping and Combining Data for Business Analytics – Foundations of Business Analytics
…
# A tibble: 0 × 2
# ℹ 2 variables: gind <dbl>, n <int>

Great. We have confirmed that our primary keys uniquely identify each observation in these data frames. It is worth noting here that while gind is the primary key for gics_industry (and so uniquely identifies observations in this data frame), it does not uniquely identify observations in firms, where (as we mentioned above) gind serves as the foreign key. We can easily show this:

# Count the number of times each gind appears in firms
firms |>
  count(gind) |>
  # Arrange in descending order to check whether gind uniquely identifies observations
  arrange(desc(n))

# A tibble: 46 × 2
     gind     n
    <dbl> <int>
 1 151040    42
 2 255040    14
 3 201030    11
 4 253010    11
 5 101020     9
 6 202010     7
 7 302020     7
 8 351020     7
 9 201070     5
10 151010     4
# ℹ 36 more rows
…
Mutating joins first match observations by keys, then copy columns from one table to the other.

left_join(x, y, by = ...) adds columns from y to x and guarantees the output has the same number of rows as x (the “left” table).

Let’s return to our examples from above, and see how we can use left_join() to add a column that identifies the industry in which each firm operates in our firm names data frame:

# Join the firms data with the GICS industry lookup table
# Match on gind (the foreign key in firms, primary key in gics_industry)
firms |> 
  left_join(
    gics_industry, 
    by = join_by(gind)
  )

# A tibble: 200 × 5
   gvkey  conm                   fyear   gind industry                          
   <chr>  <chr>                  <chr>  <dbl> <chr>                             
 1 013312 BHP GROUP LTD          2024  151040 Metals & Mining                   
 2 210216 TELSTRA GROUP LIMITED  2024  501010 Diversified Telecommunication Ser…
 3 223003 CSL LTD                2024  352010 Biotechnology                     
 4 212650 TRANSURBAN GROUP       2024  203050 Transportation Infrastructure     
 5 100894 WOOLWORTHS GROUP LTD   2024  301010 Consumer Staples Distribution & R…
 6 212427 FORTESCUE LTD          2024  151040 Metals & Mining                   
 7 101601 WESFARMERS LTD         2024  255030 Broadline Retail (New Name)       
 8 226744 RAMSAY HEALTH CARE LTD 2024  351020 Health Care Providers & Services  
 9 220244 QANTAS AIRWAYS LTD     2024  203020 Passenger Airlines (New name)     
10 017525 ORIGIN ENERGY LTD      2024  551010 Electric Utilities                
# ℹ 190 more rows
…
We also see gvkey in our stock price data frame. So, why don’t we examine whether gvkey uniquely identifies the observations in prices_tidy, in which case we can use gvkey for our join.

# Count how many times each gvkey appears in prices_tidy
# Filter for gvkeys that appear more than once (i.e., not unique)
prices_tidy |> 
  count(gvkey) |> 
  filter(n > 1)

# A tibble: 1,835 × 2
   gvkey      n
   <chr>  <int>
 1 005302     4
 2 010991     4
 3 013312     4
 4 014242     4
 5 014802     4
 6 015362     4
 7 015889     4
 8 016560     4
 9 016602     4
10 017525     4
# ℹ 1,825 more rows

Lucky we checked because gvkey does not uniquely identify each observation in prices_tidy. Instead, we observe in many cases four instances of each gvkey value in our data frame. This occurs because while our financial statements data, asx_200_2024, covers a single firm-year (2024), our stock price data, prices_tidy, covers four firm-years (2021-2024). And so, we must use gvkey and fyear to join our data frames.

Before making this join, let’s confirm that for each data frame, this compound key (gvkey and fyear) uniquely identifies each observation (we refer to a primary key that uses a set of variables as a compound key):

# Count how many times each gvkey–fyear pair appears in asx_200_2024
# If the compound key is unique, all counts should equal 1
asx_200_2024 |> 
  count(gvkey, fyear) |> 
  arrange(desc(n))

# A tibble: 200 × 3
   gvkey  fyear     n
   <chr>  <chr> <int>
 1 013312 2024      1
 2 014242 2024      1
 3 017525 2024      1
 4 100251 2024      1
 5 100442 2024      1
 6 100461 2024      1
 7 100894 2024      1
 8 101392 2024      1
 9 101513 2024      1
10 101568 2024      1
# ℹ 190 more rows

# Count how many times each gvkey–fyear pair appears in prices_tidy
# If the compound key is unique, all counts should equal 1
prices_tidy |> 
  count(gvkey, fyear) |> 
  arrange(desc(n))

# A tibble: 7,340 × 3
   gvkey  fyear     n
   <chr>  <chr> <int>
 1 005302 2021      1
 2 005302 2022      1
 3 005302 2023      1
 4 005302 2024      1
 5 010991 2021      1
 6 010991 2022      1
 7 010991 2023      1
 8 010991 2024      1
 9 013312 2021      1
10 013312 2022      1
# ℹ 7,330 more rows
…
# Join the financial statements data (asx_200_2024) with stock prices (prices_tidy)
# Use gvkey and fyear together as the compound key
# Keep all rows from asx_200_2024 and add matching price column from prices_tidy
financials_prices_lj <- 
  asx_200_2024 |> 
  left_join(
    prices_tidy |> select(gvkey, fyear, price),
    by = join_by(gvkey, fyear)
  )

# Reorder columns so price appears first, followed by the rest of the data
financials_prices_lj |> 
  select(price, everything())

# A tibble: 200 × 31
    price gvkey curcd fyear   fyr datadate     at  capx shareequity   dlc   dltt
    <dbl> <chr> <chr> <chr> <dbl> <chr>     <dbl> <dbl>       <dbl> <dbl>  <dbl>
 1  46.0  0133… USD   2024      6 6/30/20… 102362 9273       49120  2084  18634 
 2   3.88 2102… AUD   2024      6 6/30/20…  45550 2288       17352  4228  12740 
 3 286.   2230… USD   2024      6 6/30/20…  38022  849       19401   944  11239 
 4  13.1  2126… AUD   2024      6 6/30/20…  36694  104       11678  1590  18596 
 5  33.3  1008… AUD   2024      6 6/30/20…  33936 2548        5570  2311  14411 
 6  20.7  2124… USD   2024      6 6/30/20…  30060 2834       19531   192   5208 
 7  70.4  1016… AUD   2024      6 6/30/20…  27309  923        8585  1165  10113 
 8  41.6  2267… AUD   2024      6 6/30/20…  20894  754.       5275.  606. 10332.
 9   7.42 2202… AUD   2024      6 6/30/20…  20564 2761         294   600   5991 
10  10.0  0175… AUD   2024      6 6/30/20…  20454  608        9489    68   3310 
# ℹ 190 more rows
# ℹ 20 more variables: dvp <dbl>, ebit <dbl>, netprofit <dbl>, pstk <dbl>,
#   sale <dbl>, epsexcon <dbl>, nicon <dbl>, conm <chr>, fic <chr>,
#   conml <chr>, ggroup <dbl>, gind <dbl>, gsector <dbl>, gsubind <dbl>,
#   sector <chr>, indgroup <chr>, industry <chr>, subind <chr>, debt <dbl>,
#   invested_capital <dbl>
…
# Join the financial statements data (asx_200_2024) with stock prices (prices_tidy)
# Use gvkey and fyear as the compound key
# Keep all rows from prices_tidy (the "right" table), adding financials where available
financials_prices_rj <- 
  asx_200_2024 |> 
  right_join(
    prices_tidy |> select(gvkey, fyear, price),
    by = join_by(gvkey, fyear)
  )

# Reorder columns so price appears first, followed by the rest of the data
financials_prices_rj |> 
  select(price, everything())

# A tibble: 7,340 × 31
    price gvkey curcd fyear   fyr datadate     at  capx shareequity   dlc   dltt
    <dbl> <chr> <chr> <chr> <dbl> <chr>     <dbl> <dbl>       <dbl> <dbl>  <dbl>
 1  46.0  0133… USD   2024      6 6/30/20… 102362 9273       49120  2084  18634 
 2   3.88 2102… AUD   2024      6 6/30/20…  45550 2288       17352  4228  12740 
 3 286.   2230… USD   2024      6 6/30/20…  38022  849       19401   944  11239 
 4  13.1  2126… AUD   2024      6 6/30/20…  36694  104       11678  1590  18596 
 5  33.3  1008… AUD   2024      6 6/30/20…  33936 2548        5570  2311  14411 
 6  20.7  2124… USD   2024      6 6/30/20…  30060 2834       19531   192   5208 
 7  70.4  1016… AUD   2024      6 6/30/20…  27309  923        8585  1165  10113 
 8  41.6  2267… AUD   2024      6 6/30/20…  20894  754.       5275.  606. 10332.
 9   7.42 2202… AUD   2024      6 6/30/20…  20564 2761         294   600   5991 
10  10.0  0175… AUD   2024      6 6/30/20…  20454  608        9489    68   3310 
# ℹ 7,330 more rows
# ℹ 20 more variables: dvp <dbl>, ebit <dbl>, netprofit <dbl>, pstk <dbl>,
#   sale <dbl>, epsexcon <dbl>, nicon <dbl>, conm <chr>, fic <chr>,
#   conml <chr>, ggroup <dbl>, gind <dbl>, gsector <dbl>, gsubind <dbl>,
#   sector <chr>, indgroup <chr>, industry <chr>, subind <chr>, debt <dbl>,
#   invested_capital <dbl>
…
Solution

# Full join on compound key (gvkey, fyear)
financials_prices_fj <-
  asx_200_2024 |>
  full_join(
    prices_tidy |> select(gvkey, fyear, price),
    by = join_by(gvkey, fyear)
  )

# Reorder columns so price is first
financials_prices_fj |>
  select(price, everything())

# A tibble: 7,343 × 31
    price gvkey curcd fyear   fyr datadate     at  capx shareequity   dlc   dltt
    <dbl> <chr> <chr> <chr> <dbl> <chr>     <dbl> <dbl>       <dbl> <dbl>  <dbl>
 1  46.0  0133… USD   2024      6 6/30/20… 102362 9273       49120  2084  18634 
 2   3.88 2102… AUD   2024      6 6/30/20…  45550 2288       17352  4228  12740 
 3 286.   2230… USD   2024      6 6/30/20…  38022  849       19401   944  11239 
 4  13.1  2126… AUD   2024      6 6/30/20…  36694  104       11678  1590  18596 
 5  33.3  1008… AUD   2024      6 6/30/20…  33936 2548        5570  2311  14411 
 6  20.7  2124… USD   2024      6 6/30/20…  30060 2834       19531   192   5208 
 7  70.4  1016… AUD   2024      6 6/30/20…  27309  923        8585  1165  10113 
 8  41.6  2267… AUD   2024      6 6/30/20…  20894  754.       5275.  606. 10332.
 9   7.42 2202… AUD   2024      6 6/30/20…  20564 2761         294   600   5991 
10  10.0  0175… AUD   2024      6 6/30/20…  20454  608        9489    68   3310 
# ℹ 7,333 more rows
# ℹ 20 more variables: dvp <dbl>, ebit <dbl>, netprofit <dbl>, pstk <dbl>,
#   sale <dbl>, epsexcon <dbl>, nicon <dbl>, conm <chr>, fic <chr>,
#   conml <chr>, ggroup <dbl>, gind <dbl>, gsector <dbl>, gsubind <dbl>,
#   sector <chr>, indgroup <chr>, industry <chr>, subind <chr>, debt <dbl>,
#   invested_capital <dbl>
…
# Display the resulting joined data
financials_prices_ij

# A tibble: 197 × 31
   gvkey  curcd fyear   fyr datadate     at  capx shareequity   dlc   dltt   dvp
   <chr>  <chr> <chr> <dbl> <chr>     <dbl> <dbl>       <dbl> <dbl>  <dbl> <dbl>
 1 013312 USD   2024      6 6/30/20… 102362 9273       49120  2084  18634     NA
 2 210216 AUD   2024      6 6/30/20…  45550 2288       17352  4228  12740     NA
 3 223003 USD   2024      6 6/30/20…  38022  849       19401   944  11239     NA
 4 212650 AUD   2024      6 6/30/20…  36694  104       11678  1590  18596     NA
 5 100894 AUD   2024      6 6/30/20…  33936 2548        5570  2311  14411     NA
 6 212427 USD   2024      6 6/30/20…  30060 2834       19531   192   5208     NA
 7 101601 AUD   2024      6 6/30/20…  27309  923        8585  1165  10113     NA
 8 226744 AUD   2024      6 6/30/20…  20894  754.       5275.  606. 10332.    NA
 9 220244 AUD   2024      6 6/30/20…  20564 2761         294   600   5991     NA
10 017525 AUD   2024      6 6/30/20…  20454  608        9489    68   3310     NA
# ℹ 187 more rows
# ℹ 20 more variables: ebit <dbl>, netprofit <dbl>, pstk <dbl>, sale <dbl>,
#   epsexcon <dbl>, nicon <dbl>, conm <chr>, fic <chr>, conml <chr>,
#   ggroup <dbl>, gind <dbl>, gsector <dbl>, gsubind <dbl>, sector <chr>,
#   indgroup <chr>, industry <chr>, subind <chr>, debt <dbl>,
#   invested_capital <dbl>, price <dbl>
…
Now, if we look at our stock price data frame, we have many rows that contain missing values, but these observations do not include those that we identified by using anti_join():

prices_tidy |>
  filter(is.na(price))

# A tibble: 1,133 × 4
   gvkey  conm                    fyear price
   <chr>  <chr>                   <chr> <dbl>
 1 016602 THE IQ GROUP GLOBAL LTD 2022     NA
 2 016602 THE IQ GROUP GLOBAL LTD 2023     NA
 3 016602 THE IQ GROUP GLOBAL LTD 2024     NA
 4 023681 SENEX ENERGY LTD        2022     NA
 5 023681 SENEX ENERGY LTD        2023     NA
 6 023681 SENEX ENERGY LTD        2024     NA
 7 037798 TRITIUM DCFC LTD        2024     NA
 8 039960 IRIS ENERGY LIMITED     2021     NA
 9 040702 LOCAFY LTD              2021     NA
10 040702 LOCAFY LTD              2024     NA
# ℹ 1,123 more rows
…
# Use semi_join() to keep only those rows in asx_200_2024 (x)
# that also have a matching gvkey–fyear combination in prices_tidy (y)
financials_prices_sj <- 
  asx_200_2024 |> 
  semi_join(
    prices_tidy,
    by = join_by(gvkey, fyear)
  )

# Display the resulting data frame
# This shows the subset of financial statements that also have matching stock price data
financials_prices_sj

# A tibble: 197 × 30
   gvkey  curcd fyear   fyr datadate     at  capx shareequity   dlc   dltt   dvp
   <chr>  <chr> <chr> <dbl> <chr>     <dbl> <dbl>       <dbl> <dbl>  <dbl> <dbl>
 1 013312 USD   2024      6 6/30/20… 102362 9273       49120  2084  18634     NA
 2 210216 AUD   2024      6 6/30/20…  45550 2288       17352  4228  12740     NA
 3 223003 USD   2024      6 6/30/20…  38022  849       19401   944  11239     NA
 4 212650 AUD   2024      6 6/30/20…  36694  104       11678  1590  18596     NA
 5 100894 AUD   2024      6 6/30/20…  33936 2548        5570  2311  14411     NA
 6 212427 USD   2024      6 6/30/20…  30060 2834       19531   192   5208     NA
 7 101601 AUD   2024      6 6/30/20…  27309  923        8585  1165  10113     NA
 8 226744 AUD   2024      6 6/30/20…  20894  754.       5275.  606. 10332.    NA
 9 220244 AUD   2024      6 6/30/20…  20564 2761         294   600   5991     NA
10 017525 AUD   2024      6 6/30/20…  20454  608        9489    68   3310     NA
# ℹ 187 more rows
# ℹ 19 more variables: ebit <dbl>, netprofit <dbl>, pstk <dbl>, sale <dbl>,
#   epsexcon <dbl>, nicon <dbl>, conm <chr>, fic <chr>, conml <chr>,
#   ggroup <dbl>, gind <dbl>, gsector <dbl>, gsubind <dbl>, sector <chr>,
#   indgroup <chr>, industry <chr>, subind <chr>, debt <dbl>,
#   invested_capital <dbl>
…
