4 Data Visualisation for Business Intelligence – Foundations of Business Analytics
…
The file path (in quotes) is the argument, telling it which file to read

beer <- is the assignment, which stores the result into a new object called beer

When we run this line, R fetches the file and stores it as a data frame we can work with in our R environment.

The Beer Sales Dataframe

Let’s take a first look at our dataset. In R, a dataset like this is stored in a structure called a data frame — a rectangular table where each row is an observation (in this case, a product-week-store combination), and each column is a variable (like brand, price, or quantity sold).

We’ve saved this data frame as an object called beer. To inspect it, we can simply type the name:

beer

# A tibble: 4,033 × 17
   store  week brand      upc   qty price sales_indicator city  price_tier  zone
   <dbl> <dbl> <chr>    <dbl> <dbl> <dbl> <lgl>           <chr> <chr>      <dbl>
 1    86    91 Budwei… 1.82e9    23  3.49 FALSE           Chic… medium         2
 2    86    91 Corona  8.07e9    13  5.79 FALSE           Chic… medium         2
 3    86    91 Lowenb… 3.41e9    13  3.99 FALSE           Chic… medium         2
 4    86    91 Miller  3.41e9    15  3.69 FALSE           Chic… medium         2
 5    86    92 Budwei… 1.82e9    46  3.49 FALSE           Chic… medium         2
 6    86    92 Corona  8.07e9    24  5.79 FALSE           Chic… medium         2
 7    86    92 Lowenb… 3.41e9    21  3.99 FALSE           Chic… medium         2
 8    86    92 Miller  3.41e9   117  2.99 FALSE           Chic… medium         2
 9    86    93 Budwei… 1.82e9    47  3.49 FALSE           Chic… medium         2
10    86    93 Corona  8.07e9    23  4.39 FALSE           Chic… medium         2
# ℹ 4,023 more rows
# ℹ 7 more variables: zip <dbl>, address <chr>, latitude <dbl>,
#   longtitude <dbl>, start_of_week <date>, is_holiday_week <lgl>,
#   imported <chr>
…
