5 Data Wrangling for Business Analytics – Foundations of Business Analytics
…
You may notice that we load many of the packages that you used for data visualization in last week’s lecture and tutorial. While the focus of this week’s material is data wrangling, we will do so with a clear goal toward producing insightful plots. You may also notice an unfamiliar package, stringr. This package is a useful tool for working with strings (i.e., text data). It provides a set of functions that simplify common string manipulation tasks, some of which we will use in this week’s lecture and tutorial to create labels and titles for our plots from the text data in our dataframes.

Loading the ASX financial statements data

We now import the financial statements data set, which covers the 200-largest ASX-listed firms in 2024. The data is from Yahoo Finance, a public website that collects and disseminates information that it gathers from firms’ audited financial statements (i.e., annual reports) and capital markets (i.e., stock prices and volumes).

# Read in the 2024 ASX 200 data set
asx_200_2024 <- read_csv("data/asx_200_2024.csv")

So, how is this data frame structured and what information does it contain?

asx_200_2024 

# A tibble: 200 × 30
   gvkey  curcd fyear   fyr datadate     at  capx shareequity   dlc   dltt   dvp
   <chr>  <chr> <dbl> <dbl> <chr>     <dbl> <dbl>       <dbl> <dbl>  <dbl> <dbl>
 1 013312 USD    2024     6 6/30/20… 102362 9273       49120  2084  18634     NA
 2 210216 AUD    2024     6 6/30/20…  45550 2288       17352  4228  12740     NA
 3 223003 USD    2024     6 6/30/20…  38022  849       19401   944  11239     NA
 4 212650 AUD    2024     6 6/30/20…  36694  104       11678  1590  18596     NA
 5 100894 AUD    2024     6 6/30/20…  33936 2548        5570  2311  14411     NA
 6 212427 USD    2024     6 6/30/20…  30060 2834       19531   192   5208     NA
 7 101601 AUD    2024     6 6/30/20…  27309  923        8585  1165  10113     NA
 8 226744 AUD    2024     6 6/30/20…  20894  754.       5275.  606. 10332.    NA
 9 220244 AUD    2024     6 6/30/20…  20564 2761         294   600   5991     NA
10 017525 AUD    2024     6 6/30/20…  20454  608        9489    68   3310     NA
# ℹ 190 more rows
# ℹ 19 more variables: ebit <dbl>, netprofit <dbl>, pstk <dbl>, sale <dbl>,
#   epsexcon <dbl>, nicon <dbl>, conm <chr>, fic <chr>, conml <chr>,
#   ggroup <dbl>, gind <dbl>, gsector <dbl>, gsubind <dbl>, sector <chr>,
#   indgroup <chr>, industry <chr>, subind <chr>, debt <dbl>,
#   invested_capital <dbl>
…
What do group_by() and summarize() ‘do’?

group_by() divides our data frame into groups on which we can then perform subsequent operations. One such operation is summarize(), which reduces the data frame to have a single row for each group, where each row contains summary statistics for that group. This is useful for aggregating data and calculating statistics such as means, medians, or counts. Another useful summary is n(), which returns the number of rows in each group. These functions affect the rows and columns in a data frame - e.g., group_by() then summarize() ‘shortens’ and ‘narrows’.

Before examining how returns vary across industries, we should first get a sense of the composition of the largest 200 Australian public companies in 2024. Which industry is most represented in our sample? Which is least represented? Did a small number of industries make up most of the Australian stock market in 2024? To answer these questions, we use group_by() to group our data frame by industry, and then summarize to count the number of observations associated with each industry in this group:

returns |>
  # Group firms by industry
  group_by(industry) |>
  # Count the number of observations in each industry
  summarise(obs = n()) |>
  # Sort industries from most to fewest observations
  arrange(desc(obs))

# A tibble: 45 × 2
   industry                           obs
   <chr>                            <int>
 1 Metals & Mining                     42
 2 Specialty Retail                    14
 3 Construction & Engineering          11
 4 Hotels, Restaurants & Leisure       11
 5 Oil, Gas & Consumable Fuels          9
 6 Commercial Services & Supplies       7
 7 Food Products                        7
 8 Health Care Providers & Services     6
 9 Trading Companies & Distributors     5
10 Broadline Retail (New Name)          4
# ℹ 35 more rows
…
