7 Storing and Using Existing Data – Foundations of Business Analytics
…
Parquet files are “chunked”, which makes it possible to work on different parts of the file at the same time, and, if you’re lucky, to skip some chunks altogether.

There’s one primary disadvantage to parquet files: they are no longer “human readable”, i.e. if you look at a parquet file using readr::read_file(), you’ll just see a bunch of gibberish.

22.4.2 Partitioning As datasets get larger and larger, storing all the data in a single file gets increasingly painful and it’s often useful to split large datasets across many files. When this structuring is done intelligently, this strategy can lead to significant improvements in performance because many analyses will only require a subset of the files.

There are no hard and fast rules about how to partition your dataset: the results will depend on your data, access patterns, and the systems that read the data. You’re likely to need to do some experimentation before you find the ideal partitioning for your situation. As a rough guide, arrow suggests that you avoid files smaller than 20MB and larger than 2GB and avoid partitions that produce more than 10,000 files. You should also try to partition by variables that you filter by; as you’ll see shortly, that allows arrow to skip a lot of work by reading only the relevant files.

Let’s take a look at what we just produced:

tibble(
  files = list.files(pq_path, recursive = TRUE),
  size_MB = file.size(file.path(pq_path, files)) / 1024^2
)
#> # A tibble: 18 × 2
#>   files                            size_MB
#>   <chr>                              <dbl>
#> 1 CheckoutYear=2005/part-0.parquet    109.
#> 2 CheckoutYear=2006/part-0.parquet    164.
#> 3 CheckoutYear=2007/part-0.parquet    178.
#> 4 CheckoutYear=2008/part-0.parquet    195.
#> 5 CheckoutYear=2009/part-0.parquet    214.
#> 6 CheckoutYear=2010/part-0.parquet    222.
#> # ℹ 12 more rows
…
query
#> FileSystemDataset (query)
#> CheckoutYear: int32
#> CheckoutMonth: int64
#> TotalCheckouts: int64
#> 
#> * Grouped by CheckoutYear
#> * Sorted by CheckoutYear [asc], CheckoutMonth [asc]
#> See $.data for the source Arrow object

And we can get the results by calling collect():

query |> collect()
#> # A tibble: 58 × 3
#> # Groups:   CheckoutYear [5]
#>   CheckoutYear CheckoutMonth TotalCheckouts
#>          <int>         <int>          <int>
#> 1         2018             1         355101
#> 2         2018             2         309813
#> 3         2018             3         344487
#> 4         2018             4         330988
#> 5         2018             5         318049
#> 6         2018             6         341825
#> # ℹ 52 more rows
…
