9 Variation in Cross-Sectional, Times-Series, and Panel Data – Foundations of Business Analytics
…
In practice, such data is often stored into the “long form” rather than the “short form”:

# Make the data as long table
panel_long <- panel %>%
  pivot_longer(
    cols = starts_with("Year"),   # columns to reshape
    names_to = "Year",            # new column for year labels
    values_to = "Value"           # new column for values
  )

panel_long

# A tibble: 50 × 3
      id Year   Value
   <dbl> <chr>  <dbl>
 1     1 Year1 0.520 
 2     1 Year2 0.600 
 3     1 Year3 0.584 
 4     1 Year4 0.562 
 5     1 Year5 0.554 
 6     2 Year1 0.215 
 7     2 Year2 0.252 
 8     2 Year3 0.0458
 9     2 Year4 0.626 
10     2 Year5 0.396 
# ℹ 40 more rows
…
