12 Forming and Evaluating Data-driven Predictions – Foundations of Business Analytics
…
A few date strings failed to parse—often corresponding to double-header games (two games played on the same day). We can inspect them directly:

bos_2005_2015_fenway |>
  filter(is.na(ymd)) |>
  select(date, ymd)

── MLB Team Results data from baseball-reference.com ──────── baseballr 1.6.0 ──

ℹ Data updated: 2025-10-11 14:16:33 AEDT

# A tibble: 44 × 2
   date                 ymd   
   <chr>                <date>
 1 Tuesday, Sep 27 (1)  NA    
 2 Tuesday, Sep 27 (2)  NA    
 3 Friday, Aug 18 (1)   NA    
 4 Friday, Aug 18 (2)   NA    
 5 Saturday, Sep 16 (1) NA    
 6 Saturday, Sep 16 (2) NA    
 7 Sunday, Sep 17 (1)   NA    
 8 Sunday, Sep 17 (2)   NA    
 9 Thursday, May 17 (1) NA    
10 Thursday, May 17 (2) NA    
# ℹ 34 more rows
…
Now, let’s check for these double headers:

bos_2005_2015_fenway |>
  filter(is_double_header) |>
  select(ymd, game_num, date)

# A tibble: 62 × 3
   ymd        game_num date                
   <date>        <int> <chr>               
 1 2005-05-08        1 Sunday, May 8 (1)   
 2 2005-05-08        2 Sunday, May 8 (2)   
 3 2005-09-27        1 Tuesday, Sep 27 (1) 
 4 2005-09-27        2 Tuesday, Sep 27 (2) 
 5 2006-06-11        1 Sunday, Jun 11 (1)  
 6 2006-06-11        2 Sunday, Jun 11 (2)  
 7 2006-08-18        1 Friday, Aug 18 (1)  
 8 2006-08-18        2 Friday, Aug 18 (2)  
 9 2006-09-16        1 Saturday, Sep 16 (1)
10 2006-09-16        2 Saturday, Sep 16 (2)
# ℹ 52 more rows
…
